core_cm0plus.h:745:22:NVIC_EnableIRQ	16	static
core_cm0plus.h:804:22:NVIC_SetPriority	24	static
fsl_i2c.h:389:24:I2C_SlaveGetStatusFlags	16	static
I2C_Adapter.c:81:10:I2C_Initialize	56	static
I2C_Adapter.c:212:10:I2C_InstallRxCalback	32	static
I2C_Adapter.c:231:10:I2C_InstallTxCalback	32	static
I2C_Adapter.c:249:10:I2C_MasterSetSpeed	32	static
I2C_Adapter.c:266:10:I2C_MasterSend	40	static
I2C_Adapter.c:315:10:I2C_MasterReceive	40	static
I2C_Adapter.c:364:10:I2C_SlaveSend	32	static
I2C_Adapter.c:399:10:I2C_SlaveReceive	32	static
I2C_Adapter.c:440:13:I2C_ISR	32	static
