fsl_utick.c:190:6:UTICK_HandleIRQ	0	static
fsl_utick.c:95:6:UTICK_SetTick	16	static
fsl_utick.c:117:6:UTICK_Init	8	static
fsl_utick.c:143:6:UTICK_Deinit	0	static
fsl_utick.c:161:10:UTICK_GetStatusFlags	0	static
fsl_utick.c:174:6:UTICK_ClearStatusFlags	0	static
fsl_utick.c:200:6:UTICK0_DriverIRQHandler	8	static
