SecLib.c:211:6:SecLib_Init	8	static
SecLib.c:240:6:AES_128_Encrypt	32	static
SecLib.c:320:6:AES_128_Decrypt	40	static
SecLib.c:401:6:AES_128_ECB_Encrypt	64	static
SecLib.c:438:6:AES_128_ECB_Block_Encrypt	24	static
SecLib.c:471:6:AES_128_CBC_Encrypt	48	static
SecLib.c:531:10:AES_128_CBC_Encrypt_And_Pad	56	static
SecLib.c:591:10:AES_128_CBC_Decrypt_And_Depad	56	static
SecLib.c:656:6:AES_128_CTR	56	static
SecLib.c:709:6:AES_128_OFB	64	static
SecLib.c:755:6:AES_128_CMAC	144	static
SecLib.c:838:6:AES_128_CMAC_LsbFirstInput	168	static
SecLib.c:929:6:AES_CMAC_PRF_128	72	static
SecLib.c:979:17:AES_128_EAX_Encrypt	120	static
SecLib.c:1074:17:AES_128_EAX_Decrypt	104	static
SecLib.c:1183:9:AES_128_CCM	80	static
SecLib.c:1231:6:SecLib_XorN	24	static
SecLib.c:1297:13:AES_128_CMAC_Generate_Subkey	104	static
SecLib.c:1350:13:SecLib_LeftShiftOneBit	24	static
SecLib.c:1378:13:SecLib_Padding	32	static
SecLib.c:1408:13:SecLib_Xor128	32	static
SecLib.c:1428:7:SHA1_AllocCtx	16	static
SecLib.c:1442:6:SHA1_FreeCtx	16	static
SecLib.c:1456:6:SHA1_CloneCtx	16	static
SecLib.c:1469:6:SHA1_Init	24	static
SecLib.c:1492:6:SHA1_HashUpdate	40	static
SecLib.c:1543:6:SHA1_HashFinish	32	static
SecLib.c:1590:6:SHA1_Hash	128	static
SecLib.c:1607:7:SHA256_AllocCtx	16	static
SecLib.c:1621:6:SHA256_FreeCtx	16	static
SecLib.c:1635:6:SHA256_CloneCtx	16	static
SecLib.c:1648:6:SHA256_Init	24	static
SecLib.c:1671:6:SHA256_HashUpdate	40	static
SecLib.c:1722:6:SHA256_HashFinish	32	static
SecLib.c:1769:6:SHA256_Hash	136	static
SecLib.c:1786:7:HMAC_SHA256_AllocCtx	16	static
SecLib.c:1800:6:HMAC_SHA256_FreeCtx	16	static
SecLib.c:1815:6:HMAC_SHA256_Init	72	static
SecLib.c:1859:6:HMAC_SHA256_Update	32	static
SecLib.c:1876:6:HMAC_SHA256_Finish	64	static
SecLib.c:1903:6:HMAC_SHA256	200	static
SecLib.c:1921:17:ECDH_P256_GenerateKeys	24	static
SecLib.c:1979:17:ECDH_P256_ComputeDhKey	48	static
SecLib.c:2069:13:SHA1_hash_n	24	static
SecLib.c:2091:13:SHA256_hash_n	24	static
