ApplMain.c:371:6:main_task	16	static
ApplMain.c:466:6:App_Thread	40	static
ApplMain.c:575:13:App_Idle_Task	16	static
ApplMain.c:595:20:AppIdle_TaskInit	8	static
ApplMain.c:617:13:App_Connect	16	static
ApplMain.c:627:13:App_StartAdvertising	16	static
ApplMain.c:638:13:App_StartScanning	24	static
ApplMain.c:649:13:App_RegisterGattServerCallback	16	static
ApplMain.c:656:13:App_RegisterGattClientProcedureCallback	16	static
ApplMain.c:663:13:App_RegisterGattClientNotificationCallback	16	static
ApplMain.c:670:13:App_RegisterGattClientIndicationCallback	16	static
ApplMain.c:677:13:App_RegisterLeCbCallbacks	16	static
ApplMain.c:689:13:App_PostCallbackMessage	24	static
ApplMain.c:717:6:App_NvmErase	32	static
ApplMain.c:761:6:App_NvmWrite	40	static
ApplMain.c:941:6:App_NvmRead	40	static
ApplMain.c:1138:13:App_KeyboardCallBack	16	static
ApplMain.c:1152:13:App_HandleHostMessageInput	24	static
ApplMain.c:1244:13:App_GenericCallback	24	static
ApplMain.c:1265:13:App_ConnectionCallback	48	static
ApplMain.c:1361:13:App_AdvertisingCallback	24	static
ApplMain.c:1385:13:App_ScanningCallback	32	static
ApplMain.c:1433:13:App_GattServerCallback	32	static
ApplMain.c:1479:13:App_GattClientProcedureCallback	40	static
ApplMain.c:1510:13:App_GattClientNotificationCallback	48	static
ApplMain.c:1547:13:App_GattClientIndicationCallback	48	static
ApplMain.c:1584:13:App_L2caLeDataCallback	48	static
ApplMain.c:1621:13:App_L2caLeControlCallback	32	static
ApplMain.c:1687:13:BLE_SignalFromISRCallback	8	static
