core_cm0plus.h:745:22:NVIC_EnableIRQ	16	static
core_cm0plus.h:791:22:NVIC_ClearPendingIRQ	16	static
core_cm0plus.h:804:22:NVIC_SetPriority	24	static
ble_controller_task.c:122:13:ControllerTask	16	static
ble_controller_task.c:128:13:ControllerSetBD_ADDR	80	static
ble_controller_task.c:186:13:Controller_TaskInit	8	static
